%!PS-Adobe-3.0 EPSF-3.0
%%Creator: cairo 1.14.6 (http://cairographics.org)
%%CreationDate: Mon Sep 10 08:02:30 2018
%%Pages: 1
%%DocumentData: Clean7Bit
%%LanguageLevel: 2
%%BoundingBox: 27 0 487 512
%%EndComments
%%BeginProlog
save
50 dict begin
/q { gsave } bind def
/Q { grestore } bind def
/cm { 6 array astore concat } bind def
/w { setlinewidth } bind def
/J { setlinecap } bind def
/j { setlinejoin } bind def
/M { setmiterlimit } bind def
/d { setdash } bind def
/m { moveto } bind def
/l { lineto } bind def
/c { curveto } bind def
/h { closepath } bind def
/re { exch dup neg 3 1 roll 5 3 roll moveto 0 rlineto
      0 exch rlineto 0 rlineto closepath } bind def
/S { stroke } bind def
/f { fill } bind def
/f* { eofill } bind def
/n { newpath } bind def
/W { clip } bind def
/W* { eoclip } bind def
/BT { } bind def
/ET { } bind def
/pdfmark where { pop globaldict /?pdfmark /exec load put }
    { globaldict begin /?pdfmark /pop load def /pdfmark
    /cleartomark load def end } ifelse
/BDC { mark 3 1 roll /BDC pdfmark } bind def
/EMC { mark /EMC pdfmark } bind def
/cairo_store_point { /cairo_point_y exch def /cairo_point_x exch def } def
/Tj { show currentpoint cairo_store_point } bind def
/TJ {
  {
    dup
    type /stringtype eq
    { show } { -0.001 mul 0 cairo_font_matrix dtransform rmoveto } ifelse
  } forall
  currentpoint cairo_store_point
} bind def
/cairo_selectfont { cairo_font_matrix aload pop pop pop 0 0 6 array astore
    cairo_font exch selectfont cairo_point_x cairo_point_y moveto } bind def
/Tf { pop /cairo_font exch def /cairo_font_matrix where
      { pop cairo_selectfont } if } bind def
/Td { matrix translate cairo_font_matrix matrix concatmatrix dup
      /cairo_font_matrix exch def dup 4 get exch 5 get cairo_store_point
      /cairo_font where { pop cairo_selectfont } if } bind def
/Tm { 2 copy 8 2 roll 6 array astore /cairo_font_matrix exch def
      cairo_store_point /cairo_font where { pop cairo_selectfont } if } bind def
/g { setgray } bind def
/rg { setrgbcolor } bind def
/d1 { setcachedevice } bind def
%%EndProlog
%%BeginSetup
%%EndSetup
%%Page: 1 1
%%BeginPageSetup
%%PageBoundingBox: 27 0 487 512
%%EndPageSetup
q 27 0 460 512 rectclip q
0.156863 0.337255 0.501961 rg
203.551 50.027 m 88.793 50.027 l 88.793 8.828 l 88.793 3.953 92.746 0 97.621
 0 c 362.449 0 l 367.324 0 371.277 3.953 371.277 8.828 c 371.277 50.027 
l 256.516 50.027 l f
0.207843 0.286275 0.368627 rg
371.277 35.309 m 406.586 167.723 l 230.035 192.371 l 53.484 167.723 l 88.793
 35.309 l h
371.277 35.309 m f
0.172549 0.243137 0.313726 rg
300.656 176.551 35.309 -141.242 re f
124.105 176.551 35.309 -141.242 re f
0.156863 0.337255 0.501961 rg
53.484 167.723 m 27 203.035 l 230.035 221.793 l 433.07 203.035 l 406.586
 167.723 l h
53.484 167.723 m f
0.564706 0.729412 0.882353 rg
433.07 308.965 m 433.094 287.992 429.848 267.145 423.445 247.172 c 393.344
 238.344 l 362.977 247.172 l 369.512 268.625 350.883 291.488 350.883 315.055
 c 350.883 319.469 350.797 323.973 350.531 328.297 c 330.668 396.625 l 330.582
 396.801 330.582 396.977 330.492 397.152 c 330.402 397.328 330.402 397.508
 330.316 397.684 c 330.227 397.859 330.227 398.035 330.141 398.211 c 326.609
 410.484 l 326.449 410.883 326.332 411.297 326.254 411.719 c 320.957 429.992
 l 303.57 461.152 301.363 487.637 272.32 507.496 c 307.004 500.191 339.133
 483.836 365.449 460.094 c 431.305 335.008 l 432.52 326.379 433.109 317.676
 433.07 308.965 c h
433.07 308.965 m f
0.207843 0.286275 0.368627 rg
372.953 315.055 m 372.996 292.059 369.637 269.184 362.977 247.172 c 315.371
 238.344 l 243.277 243.863 l 252.453 265.078 260.371 286.816 266.996 308.965
 c 372.602 328.297 l 372.863 323.973 372.953 319.469 372.953 315.055 c h
372.953 315.055 m f
0.156863 0.337255 0.501961 rg
390.078 335.184 m 372.602 328.297 l 276.469 290.605 l 280.844 309.656 283.035
 329.141 283 348.691 c 282.996 364.227 281.641 379.734 278.938 395.035 c
 343.027 429.992 l 345.324 431.227 l 345.5 430.961 l 345.586 429.461 354.504
 427.871 354.594 426.285 c 354.77 424.871 363.773 423.371 364.039 421.871
 c 364.215 420.812 364.301 419.664 364.566 418.516 c 364.551 418.277 364.582
 418.039 364.656 417.809 c 365.008 415.867 365.449 413.836 365.98 411.719
 c 366.055 411.297 366.176 410.883 366.332 410.484 c 366.863 408.012 367.57
 405.539 368.363 402.98 c 368.805 401.391 369.332 399.801 369.863 398.211
 c 369.953 398.035 369.953 397.859 370.039 397.684 c 370.129 397.508 370.129
 397.328 370.215 397.152 c 370.305 396.977 370.305 396.801 370.395 396.625
 c 371.277 394.152 372.16 391.68 373.219 389.121 c 374.453 385.941 375.867
 382.766 377.367 379.496 c 386.195 360.52 379.574 344.895 389.992 335.449
 c h
390.078 335.184 m f
0.172549 0.184314 0.219608 rg
247.691 123.586 m 212.379 123.586 l 207.504 123.586 203.551 127.539 203.551
 132.414 c 203.551 137.289 207.504 141.242 212.379 141.242 c 247.691 141.242
 l 252.566 141.242 256.516 137.289 256.516 132.414 c 256.516 127.539 252.566
 123.586 247.691 123.586 c h
247.691 123.586 m f
230.035 88.277 m 244.66 88.277 256.516 76.418 256.516 61.793 c 256.516 
0 l 203.551 0 l 203.551 61.793 l 203.551 76.418 215.41 88.277 230.035 88.277
 c h
230.035 88.277 m f
0.207843 0.286275 0.368627 rg
343.027 429.992 m 270.113 386.207 l 262.168 429.902 252.281 478.719 225.445
 511.91 c 226.945 512 228.535 512 230.035 512 c 244.188 512.02 258.301 510.539
 272.141 507.586 c 272.23 507.586 l 272.277 507.586 272.32 507.547 272.32
 507.496 c 301.562 487.477 325.77 460.945 343.027 429.992 c h
343.027 429.992 m f
0.564706 0.729412 0.882353 rg
283 348.691 m 283.023 313.812 276.027 279.289 262.434 247.172 c 150.957
 233.93 l 36.621 247.172 l 17.156 308.141 27.574 374.719 64.738 426.824 
c 101.902 478.93 161.461 510.465 225.445 511.91 c 252.793 478.055 271.188
 437.863 278.938 395.035 c 281.641 379.734 282.996 364.227 283 348.691 c
 h
283 348.691 m f
0.156863 0.337255 0.501961 rg
150.586 441.379 m 132.93 441.379 l 128.055 441.379 124.105 445.332 124.105
 450.207 c 124.105 455.082 128.055 459.035 132.93 459.035 c 150.586 459.035
 l 155.461 459.035 159.414 455.082 159.414 450.207 c 159.414 445.332 155.461
 441.379 150.586 441.379 c h
150.586 441.379 m f
230.035 441.379 m 194.723 441.379 l 189.848 441.379 185.898 445.332 185.898
 450.207 c 185.898 455.082 189.848 459.035 194.723 459.035 c 230.035 459.035
 l 234.91 459.035 238.863 455.082 238.863 450.207 c 238.863 445.332 234.91
 441.379 230.035 441.379 c h
230.035 441.379 m f
115.277 397.242 m 88.793 397.242 l 83.918 397.242 79.965 401.195 79.965
 406.07 c 79.965 410.945 83.918 414.895 88.793 414.895 c 115.277 414.895
 l 120.152 414.895 124.105 410.945 124.105 406.07 c 124.105 401.195 120.152
 397.242 115.277 397.242 c h
115.277 397.242 m f
238.863 397.242 m 159.414 397.242 l 154.539 397.242 150.586 401.195 150.586
 406.07 c 150.586 410.945 154.539 414.895 159.414 414.895 c 238.863 414.895
 l 243.738 414.895 247.691 410.945 247.691 406.07 c 247.691 401.195 243.738
 397.242 238.863 397.242 c h
238.863 397.242 m f
106.449 353.102 m 71.137 353.102 l 66.262 353.102 62.309 357.055 62.309
 361.93 c 62.309 366.805 66.262 370.758 71.137 370.758 c 106.449 370.758
 l 111.324 370.758 115.277 366.805 115.277 361.93 c 115.277 357.055 111.324
 353.102 106.449 353.102 c h
106.449 353.102 m f
247.691 353.102 m 141.758 353.102 l 136.883 353.102 132.93 357.055 132.93
 361.93 c 132.93 366.805 136.883 370.758 141.758 370.758 c 247.691 370.758
 l 252.566 370.758 256.516 366.805 256.516 361.93 c 256.516 357.055 252.566
 353.102 247.691 353.102 c h
247.691 353.102 m f
79.965 308.965 m 62.309 308.965 l 57.434 308.965 53.484 312.918 53.484 
317.793 c 53.484 322.668 57.434 326.621 62.309 326.621 c 79.965 326.621 
l 84.84 326.621 88.793 322.668 88.793 317.793 c 88.793 312.918 84.84 308.965
 79.965 308.965 c h
79.965 308.965 m f
238.863 308.965 m 124.105 308.965 l 119.227 308.965 115.277 312.918 115.277
 317.793 c 115.277 322.668 119.227 326.621 124.105 326.621 c 238.863 326.621
 l 243.738 326.621 247.691 322.668 247.691 317.793 c 247.691 312.918 243.738
 308.965 238.863 308.965 c h
238.863 308.965 m f
0.266667 0.509804 0.764706 rg
433.07 238.344 m 433.07 203.035 l 27 203.035 l 27 238.344 l 27 243.219 
30.953 247.172 35.828 247.172 c 424.242 247.172 l 429.117 247.172 433.07
 243.219 433.07 238.344 c h
433.07 238.344 m f
0.564706 0.729412 0.882353 rg
477.559 356.547 m 464.32 350.367 440.219 374.023 423.711 409.336 c 407.203
 444.645 404.645 478.367 417.887 484.547 c 431.129 490.727 455.227 467.066
 471.734 431.758 c 488.242 396.445 490.801 362.727 477.559 356.547 c h
477.559 356.547 m f
0.266667 0.509804 0.764706 rg
477.559 356.547 m 431.305 335.008 l 413.559 326.707 l 407.469 323.883 398.996
 327.328 389.992 335.449 c 377.199 348.082 366.922 363.027 359.711 379.496
 c 351.746 395.594 346.922 413.059 345.5 430.961 c 344.969 443.055 347.793
 451.883 353.887 454.707 c 365.449 460.094 l 417.887 484.547 l 404.645 478.367
 407.293 444.645 423.711 409.336 c 440.133 374.023 464.32 350.367 477.559
 356.547 c h
477.559 356.547 m f
Q Q
showpage
%%Trailer
end restore
%%EOF
